Ultrasonic_ranging/simulation/qsim/csb.msim.vcd
$comment
	File created using the following command:
		vcd file csb.msim.vcd -direction
$end
$date
	Thu Mar 31 11:46:03 2022
$end
$version
	ModelSim Version 10.1d
$end
$timescale
	1ps
$end
$scope module csb_vlg_vec_tst $end
$var reg 1 ! clk $end
$var wire 1 " clk1M1 $end
$var wire 1 # clk1M2 $end
$var wire 1 $ T15us $end
$var wire 1 % sampler $end
$scope module i1 $end
$var wire 1 & gnd $end
$var wire 1 ' vcc $end
$var wire 1 ( unknown $end
$var tri1 1 ) devclrn $end
$var tri1 1 * devpor $end
$var tri1 1 + devoe $end
$var wire 1 , clk~input_o $end
$var wire 1 - inst|altpll_component|auto_generated|wire_pll1_fbout $end
$var wire 1 . inst|altpll_component|auto_generated|wire_pll1_clk[1]~clkctrl_outclk $end
$var wire 1 / inst|altpll_component|auto_generated|wire_pll1_clk[0]~clkctrl_outclk $end
$var wire 1 0 inst2|LPM_COUNTER_component|auto_generated|counter_comb_bita0~combout $end
$var wire 1 1 ~GND~combout $end
$var wire 1 2 inst2|LPM_COUNTER_component|auto_generated|counter_comb_bita0~COUT $end
$var wire 1 3 inst2|LPM_COUNTER_component|auto_generated|counter_comb_bita1~combout $end
$var wire 1 4 inst2|LPM_COUNTER_component|auto_generated|counter_comb_bita1~COUT $end
$var wire 1 5 inst2|LPM_COUNTER_component|auto_generated|counter_comb_bita2~combout $end
$var wire 1 6 inst2|LPM_COUNTER_component|auto_generated|counter_comb_bita2~COUT $end
$var wire 1 7 inst2|LPM_COUNTER_component|auto_generated|counter_comb_bita3~combout $end
$var wire 1 8 inst2|LPM_COUNTER_component|auto_generated|cmpr1|aneb_result_wire[0]~0_combout $end
$var wire 1 9 inst2|LPM_COUNTER_component|auto_generated|counter_comb_bita3~COUT $end
$var wire 1 : inst2|LPM_COUNTER_component|auto_generated|counter_comb_bita3~0_combout $end
$var wire 1 ; inst2|LPM_COUNTER_component|auto_generated|cout_actual~combout $end
$var wire 1 < inst|altpll_component|auto_generated|wire_pll1_clk [4] $end
$var wire 1 = inst|altpll_component|auto_generated|wire_pll1_clk [3] $end
$var wire 1 > inst|altpll_component|auto_generated|wire_pll1_clk [2] $end
$var wire 1 ? inst|altpll_component|auto_generated|wire_pll1_clk [1] $end
$var wire 1 @ inst|altpll_component|auto_generated|wire_pll1_clk [0] $end
$var wire 1 A inst2|LPM_COUNTER_component|auto_generated|counter_reg_bit [3] $end
$var wire 1 B inst2|LPM_COUNTER_component|auto_generated|counter_reg_bit [2] $end
$var wire 1 C inst2|LPM_COUNTER_component|auto_generated|counter_reg_bit [1] $end
$var wire 1 D inst2|LPM_COUNTER_component|auto_generated|counter_reg_bit [0] $end
$var wire 1 E inst|altpll_component|auto_generated|pll1_CLK_bus [4] $end
$var wire 1 F inst|altpll_component|auto_generated|pll1_CLK_bus [3] $end
$var wire 1 G inst|altpll_component|auto_generated|pll1_CLK_bus [2] $end
$var wire 1 H inst|altpll_component|auto_generated|pll1_CLK_bus [1] $end
$var wire 1 I inst|altpll_component|auto_generated|pll1_CLK_bus [0] $end
$upscope $end
$upscope $end
$enddefinitions $end
#0
$dumpvars
0!
x"
x#
0$
x%
0&
1'
x(
1)
1*
1+
0,
x-
x.
x/
10
01
02
03
14
05
06
07
08
19
0:
0;
x@
x?
x>
x=
x<
0D
0C
0B
0A
xI
xH
xG
xF
xE
$end
#1111
1-
#5000
1!
0%
1,
#10000
0!
1%
0,
#15000
1!
0%
1,
#20000
0!
1%
0,
#21111
0-
#25000
1!
0%
1,
#30000
0!
1%
0,
#35000
1!
0%
1,
#40000
0!
1%
0,
#41111
1-
#45000
1!
0%
1,
#50000
0!
1%
0,
#55000
1!
0%
1,
#60000
0!
1%
0,
#61111
0-
#65000
1!
0%
1,
#70000
0!
1%
0,
#75000
1!
0%
1,
#80000
0!
1%
0,
#81111
1-
#85000
1!
0%
1,
#90000
0!
1%
0,
#95000
1!
0%
1,
#100000
0!
1%
0,
#101111
0-
#105000
1!
0%
1,
#110000
0!
1%
0,
#115000
1!
0%
1,
#120000
0!
1%
0,
#121111
1-
#125000
1!
0%
1,
#130000
0!
1%
0,
#135000
1!
0%
1,
#140000
0!
1%
0,
#141111
0-
#145000
1!
0%
1,
#150000
0!
1%
0,
#155000
1!
0%
1,
#160000
0!
1%
0,
#161111
1-
#165000
1!
0%
1,
#170000
0!
1%
0,
#175000
1!
0%
1,
#180000
0!
1%
0,
#181111
0-
#185000
1!
0%
1,
#190000
0!
1%
0,
#195000
1!
0%
1,
#200000
0!
1%
0,
#201111
1-
#205000
1!
0%
1,
#210000
0!
1%
0,
#215000
1!
0%
1,
#220000
0!
1%
0,
#221111
0-
#225000
1!
0%
1,
#230000
0!
1%
0,
#235000
1!
0%
1,
#240000
0!
1%
0,
#241111
1-
#245000
1!
0%
1,
#250000
0!
1%
0,
#255000
1!
0%
1,
#260000
0!
1%
0,
#261111
0-
#265000
1!
0%
1,
#270000
0!
1%
0,
#275000
1!
0%
1,
#280000
0!
1%
0,
#281111
1-
#285000
1!
0%
1,
#290000
0!
1%
0,
#295000
1!
0%
1,
#300000
0!
1%
0,
#301111
0-
#305000
1!
0%
1,
#310000
0!
1%
0,
#315000
1!
0%
1,
#320000
0!
1%
0,
#321111
1-
#325000
1!
0%
1,
#330000
0!
1%
0,
#335000
1!
0%
1,
#340000
0!
1%
0,
#341111
0-
#345000
1!
0%
1,
#350000
0!
1%
0,
#355000
1!
0%
1,
#360000
0!
1%
0,
#361111
1-
#365000
1!
0%
1,
#370000
0!
1%
0,
#375000
1!
0%
1,
#380000
0!
1%
0,
#381111
0-
#385000
1!
0%
1,
#390000
0!
1%
0,
#395000
1!
0%
1,
#400000
0!
1%
0,
#401111
1-
#405000
1!
0%
1,
#410000
0!
1%
0,
#415000
1!
0%
1,
#420000
0!
1%
0,
#421111
0-
#425000
1!
0%
1,
#430000
0!
1%
0,
#435000
1!
0%
1,
#440000
0!
1%
0,
#441111
1-
#445000
1!
0%
1,
#450000
0!
1%
0,
#455000
1!
0%
1,
#460000
0!
1%
0,
#461111
0-
#465000
1!
0%
1,
#470000
0!
1%
0,
#475000
1!
0%
1,
#480000
0!
1%
0,
#481111
1-
#485000
1!
0%
1,
#490000
0!
1%
0,
#495000
1!
0%
1,
#500000
0!
1%
0,
#501111
0-
#505000
1!
0%
1,
#510000
0!
1%
0,
#515000
1!
0%
1,
#520000
0!
1%
0,
#521111
1-
#525000
1!
0%
1,
#530000
0!
1%
0,
#535000
1!
0%
1,
#540000
0!
1%
0,
#541111
0-
#545000
1!
0%
1,
#550000
0!
1%
0,
#555000
1!
0%
1,
#560000
0!
1%
0,
#561111
1-
#565000
1!
0%
1,
#570000
0!
1%
0,
#575000
1!
0%
1,
#580000
0!
1%
0,
#581111
0-
#585000
1!
0%
1,
#590000
0!
1%
0,
#595000
1!
0%
1,
#600000
0!
1%
0,
#601111
1-
#605000
1!
0%
1,
#610000
0!
1%
0,
#615000
1!
0%
1,
#620000
0!
1%
0,
#621111
0-
#625000
1!
0%
1,
#630000
0!
1%
0,
#635000
1!
0%
1,
#640000
0!
1%
0,
#641111
1-
#645000
1!
0%
1,
#650000
0!
1%
0,
#655000
1!
0%
1,
#660000
0!
1%
0,
#661111
0-
#665000
1!
0%
1,
#670000
0!
1%
0,
#675000
1!
0%
1,
#680000
0!
1%
0,
#681111
1-
#685000
1!
0%
1,
#690000
0!
1%
0,
#695000
1!
0%
1,
#700000
0!
1%
0,
#701111
0-
#705000
1!
0%
1,
#710000
0!
1%
0,
#715000
1!
0%
1,
#720000
0!
1%
0,
#721111
1-
#725000
1!
0%
1,
#730000
0!
1%
0,
#735000
1!
0%
1,
#740000
0!
1%
0,
#741111
0-
#745000
1!
0%
1,
#750000
0!
1%
0,
#755000
1!
0%
1,
#760000
0!
1%
0,
#761111
1-
#765000
1!
0%
1,
#770000
0!
1%
0,
#775000
1!
0%
1,
#780000
0!
1%
0,
#781111
0-
#785000
1!
0%
1,
#790000
0!
1%
0,
#795000
1!
0%
1,
#800000
0!
1%
0,
#801111
1-
#805000
1!
0%
1,
#810000
0!
1%
0,
#815000
1!
0%
1,
#820000
0!
1%
0,
#821111
0-
#825000
1!
0%
1,
#830000
0!
1%
0,
#835000
1!
0%
1,
#840000
0!
1%
0,
#841111
1-
#845000
1!
0%
1,
#850000
0!
1%
0,
#855000
1!
0%
1,
#860000
0!
1%
0,
#861111
0-
#865000
1!
0%
1,
#870000
0!
1%
0,
#875000
1!
0%
1,
#880000
0!
1%
0,
#881111
1-
#885000
1!
0%
1,
#890000
0!
1%
0,
#895000
1!
0%
1,
#900000
0!
1%
0,
#901111
0-
#905000
1!
0%
1,
#910000
0!
1%
0,
#915000
1!
0%
1,
#920000
0!
1%
0,
#921111
1-
#925000
1!
0%
1,
#930000
0!
1%
0,
#935000
1!
0%
1,
#940000
0!
1%
0,
#941111
0-
#945000
1!
0%
1,
#950000
0!
1%
0,
#955000
1!
0%
1,
#960000
0!
1%
0,
#961111
1-
#965000
1!
0%
1,
#970000
0!
1%
0,
#975000
1!
0%
1,
#980000
0!
1%
0,
#981111
0-
#985000
1!
0%
1,
#990000
0!
1%
0,
#995000
1!
0%
1,
#1000000
0!
1%
0,
#1001111
1-
#1005000
1!
0%
1,
#1010000
0!
1%
0,
#1015000
1!
0%
1,
#1020000
0!
1%
0,
#1021111
0-
#1025000
1!
0%
1,
#1030000
0!
1%
0,
#1035000
1!
0%
1,
#1040000
0!
1%
0,
#1041111
1-
#1045000
1!
0%
1,
#1050000
0!
1%
0,
#1055000
1!
0%
1,
#1060000
0!
1%
0,
#1061111
0-
#1065000
1!
0%
1,
#1070000
0!
1%
0,
#1075000
1!
0%
1,
#1080000
0!
1%
0,
#1081111
1-
#1085000
1!
0%
1,
#1090000
0!
1%
0,
#1095000
1!
0%
1,
#1100000
0!
1%
0,
#1101111
0-
#1105000
1!
0%
1,
#1110000
0!
1%
0,
#1115000
1!
0%
1,
#1120000
0!
1%
0,
#1121111
1-
#1125000
1!
0%
1,
#1130000
0!
1%
0,
#1135000
1!
0%
1,
#1140000
0!
1%
0,
#1141111
0-
#1145000
1!
0%
1,
#1150000
0!
1%
0,
#1155000
1!
0%
1,
#1160000
0!
1%
0,
#1161111
1-
#1165000
1!
0%
1,
#1170000
0!
1%
0,
#1175000
1!
0%
1,
#1180000
0!
1%
0,
#1181111
0-
#1185000
1!
0%
1,
#1190000
0!
1%
0,
#1195000
1!
0%
1,
#1200000
0!
1%
0,
#1201111
1-
#1205000
1!
0%
1,
#1210000
0!
1%
0,
#1215000
1!
0%
1,
#1220000
0!
1%
0,
#1221111
0-
#1225000
1!
0%
1,
#1230000
0!
1%
0,
#1235000
1!
0%
1,
#1240000
0!
1%
0,
#1241111
1-
#1245000
1!
0%
1,
#1250000
0!
1%
0,
#1255000
1!
0%
1,
#1260000
0!
1%
0,
#1261111
0-
#1265000
1!
0%
1,
#1270000
0!
1%
0,
#1275000
1!
0%
1,
#1280000
0!
1%
0,
#1281111
1-
#1285000
1!
0%
1,
#1290000
0!
1%
0,
#1295000
1!
0%
1,
#1300000
0!
1%
0,
#1301111
0-
#1305000
1!
0%
1,
#1310000
0!
1%
0,
#1315000
1!
0%
1,
#1320000
0!
1%
0,
#1321111
1-
#1325000
1!
0%
1,
#1330000
0!
1%
0,
#1335000
1!
0%
1,
#1340000
0!
1%
0,
#1341111
0-
#1345000
1!
0%
1,
#1350000
0!
1%
0,
#1355000
1!
0%
1,
#1360000
0!
1%
0,
#1361111
1-
#1365000
1!
0%
1,
#1370000
0!
1%
0,
#1375000
1!
0%
1,
#1380000
0!
1%
0,
#1381111
0-
#1385000
1!
0%
1,
#1390000
0!
1%
0,
#1395000
1!
0%
1,
#1400000
0!
1%
0,
#1401111
1-
#1405000
1!
0%
1,
#1410000
0!
1%
0,
#1415000
1!
0%
1,
#1420000
0!
1%
0,
#1421111
0-
#1425000
1!
0%
1,
#1430000
0!
1%
0,
#1435000
1!
0%
1,
#1440000
0!
1%
0,
#1441111
1-
#1445000
1!
0%
1,
#1450000
0!
1%
0,
#1455000
1!
0%
1,
#1460000
0!
1%
0,
#1461111
0-
#1465000
1!
0%
1,
#1470000
0!
1%
0,
#1475000
1!
0%
1,
#1480000
0!
1%
0,
#1481111
1-
#1485000
1!
0%
1,
#1490000
0!
1%
0,
#1495000
1!
0%
1,
#1500000
0!
1%
0,
#1501111
0-
#1505000
1!
0%
1,
#1510000
0!
1%
0,
#1515000
1!
0%
1,
#1520000
0!
1%
0,
#1521111
1-
#1525000
1!
0%
1,
#1530000
0!
1%
0,
#1535000
1!
0%
1,
#1540000
0!
1%
0,
#1541111
0-
#1545000
1!
0%
1,
#1550000
0!
1%
0,
#1555000
1!
0%
1,
#1560000
0!
1%
0,
#1561111
1-
#1565000
1!
0%
1,
#1570000
0!
1%
0,
#1575000
1!
0%
1,
#1580000
0!
1%
0,
#1581111
0-
#1585000
1!
0%
1,
#1590000
0!
1%
0,
#1595000
1!
0%
1,
#1600000
0!
1%
0,
#1601111
1-
#1605000
1!
0%
1,
#1610000
0!
1%
0,
#1615000
1!
0%
1,
#1620000
0!
1%
0,
#1621111
0-
#1625000
1!
0%
1,
#1630000
0!
1%
0,
#1635000
1!
0%
1,
#1640000
0!
1%
0,
#1641111
1-
#1645000
1!
0%
1,
#1650000
0!
1%
0,
#1655000
1!
0%
1,
#1660000
0!
1%
0,
#1661111
0-
#1665000
1!
0%
1,
#1670000
0!
1%
0,
#1675000
1!
0%
1,
#1680000
0!
1%
0,
#1681111
1-
#1685000
1!
0%
1,
#1690000
0!
1%
0,
#1695000
1!
0%
1,
#1700000
0!
1%
0,
#1701111
0-
#1705000
1!
0%
1,
#1710000
0!
1%
0,
#1715000
1!
0%
1,
#1720000
0!
1%
0,
#1721111
1-
#1725000
1!
0%
1,
#1730000
0!
1%
0,
#1735000
1!
0%
1,
#1740000
0!
1%
0,
#1741111
0-
#1745000
1!
0%
1,
#1750000
0!
1%
0,
#1755000
1!
0%
1,
#1760000
0!
1%
0,
#1761111
1-
#1765000
1!
0%
1,
#1770000
0!
1%
0,
#1775000
1!
0%
1,
#1780000
0!
1%
0,
#1781111
0-
#1785000
1!
0%
1,
#1790000
0!
1%
0,
#1795000
1!
0%
1,
#1800000
0!
1%
0,
#1801111
1-
#1805000
1!
0%
1,
#1810000
0!
1%
0,
#1815000
1!
0%
1,
#1820000
0!
1%
0,
#1821111
0-
#1825000
1!
0%
1,
#1830000
0!
1%
0,
#1835000
1!
0%
1,
#1840000
0!
1%
0,
#1841111
1-
#1845000
1!
0%
1,
#1850000
0!
1%
0,
#1855000
1!
0%
1,
#1860000
0!
1%
0,
#1861111
0-
#1865000
1!
0%
1,
#1870000
0!
1%
0,
#1875000
1!
0%
1,
#1880000
0!
1%
0,
#1881111
1-
#1885000
1!
0%
1,
#1890000
0!
1%
0,
#1895000
1!
0%
1,
#1900000
0!
1%
0,
#1901111
0-
#1905000
1!
0%
1,
#1910000
0!
1%
0,
#1915000
1!
0%
1,
#1920000
0!
1%
0,
#1921111
1-
#1925000
1!
0%
1,
#1930000
0!
1%
0,
#1935000
1!
0%
1,
#1940000
0!
1%
0,
#1941111
0-
#1945000
1!
0%
1,
#1950000
0!
1%
0,
#1955000
1!
0%
1,
#1960000
0!
1%
0,
#1961111
1-
#1965000
1!
0%
1,
#1970000
0!
1%
0,
#1975000
1!
0%
1,
#1980000
0!
1%
0,
#1981111
0-
#1985000
1!
0%
1,
#1990000
0!
1%
0,
#1995000
1!
0%
1,
#2000000
0!
1%
0,
#2001111
1-
#2005000
1!
0%
1,
#2010000
0!
1%
0,
#2015000
1!
0%
1,
#2020000
0!
1%
0,
#2021111
0-
#2025000
1!
0%
1,
#2030000
0!
1%
0,
#2035000
1!
0%
1,
#2040000
0!
1%
0,
#2041111
1-
#2045000
1!
0%
1,
#2050000
0!
1%
0,
#2055000
1!
0%
1,
#2060000
0!
1%
0,
#2061111
0-
#2065000
1!
0%
1,
#2070000
0!
1%
0,
#2075000
1!
0%
1,
#2080000
0!
1%
0,
#2081111
1-
#2085000
1!
0%
1,
#2090000
0!
1%
0,
#2095000
1!
0%
1,
#2100000
0!
1%
0,
#2101111
0-
#2105000
1!
0%
1,
#2110000
0!
1%
0,
#2115000
1!
0%
1,
#2120000
0!
1%
0,
#2121111
1-
#2125000
1!
0%
1,
#2130000
0!
1%
0,
#2135000
1!
0%
1,
#2140000
0!
1%
0,
#2141111
0-
#2145000
1!
0%
1,
#2150000
0!
1%
0,
#2155000
1!
0%
1,
#2160000
0!
1%
0,
#2161111
1-
#2165000
1!
0%
1,
#2170000
0!
1%
0,
#2175000
1!
0%
1,
#2180000
0!
1%
0,
#2181111
0-
#2185000
1!
0%
1,
#2190000
0!
1%
0,
#2195000
1!
0%
1,
#2200000
0!
1%
0,
#2201111
1-
#2205000
1!
0%
1,
#2210000
0!
1%
0,
#2215000
1!
0%
1,
#2220000
0!
1%
0,
#2221111
0-
#2225000
1!
0%
1,
#2230000
0!
1%
0,
#2235000
1!
0%
1,
#2240000
0!
1%
0,
#2241111
1-
#2245000
1!
0%
1,
#2250000
0!
1%
0,
#2255000
1!
0%
1,
#2260000
0!
1%
0,
#2261111
0-
#2265000
1!
0%
1,
#2270000
0!
1%
0,
#2275000
1!
0%
1,
#2280000
0!
1%
0,
#2281111
1-
#2285000
1!
0%
1,
#2290000
0!
1%
0,
#2295000
1!
0%
1,
#2300000
0!
1%
0,
#2301111
0-
#2305000
1!
0%
1,
#2310000
0!
1%
0,
#2315000
1!
0%
1,
#2320000
0!
1%
0,
#2321111
1-
#2325000
1!
0%
1,
#2330000
0!
1%
0,
#2335000
1!
0%
1,
#2340000
0!
1%
0,
#2341111
0-
#2345000
1!
0%
1,
#2350000
0!
1%
0,
#2355000
1!
0%
1,
#2360000
0!
1%
0,
#2361111
1-
#2365000
1!
0%
1,
#2370000
0!
1%
0,
#2375000
1!
0%
1,
#2380000
0!
1%
0,
#2381111
0-
#2385000
1!
0%
1,
#2390000
0!
1%
0,
#2395000
1!
0%
1,
#2400000
0!
1%
0,
#2401111
1-
#2405000
1!
0%
1,
#2410000
0!
1%
0,
#2415000
1!
0%
1,
#2420000
0!
1%
0,
#2421111
0-
#2425000
1!
0%
1,
#2430000
0!
1%
0,
#2435000
1!
0%
1,
#2440000
0!
1%
0,
#2441111
1-
#2445000
1!
0%
1,
#2450000
0!
1%
0,
#2455000
1!
0%
1,
#2460000
0!
1%
0,
#2461111
0-
#2465000
1!
0%
1,
#2470000
0!
1%
0,
#2475000
1!
0%
1,
#2480000
0!
1%
0,
#2481111
1-
#2485000
1!
0%
1,
#2490000
0!
1%
0,
#2495000
1!
0%
1,
#2500000
0!
1%
0,
#2501111
0-
#2505000
1!
0%
1,
#2510000
0!
1%
0,
#2515000
1!
0%
1,
#2520000
0!
1%
0,
#2521111
1-
#2525000
1!
0%
1,
#2530000
0!
1%
0,
#2535000
1!
0%
1,
#2540000
0!
1%
0,
#2541111
0-
#2545000
1!
0%
1,
#2550000
0!
1%
0,
#2555000
1!
0%
1,
#2560000
0!
1%
0,
#2561111
1-
#2565000
1!
0%
1,
#2570000
0!
1%
0,
#2575000
1!
0%
1,
#2580000
0!
1%
0,
#2581111
0-
#2585000
1!
0%
1,
#2590000
0!
1%
0,
#2595000
1!
0%
1,
#2600000
0!
1%
0,
#2601111
1-
#2605000
1!
0%
1,
#2610000
0!
1%
0,
#2615000
1!
0%
1,
#2620000
0!
1%
0,
#2621111
0-
#2625000
1!
0%
1,
#2630000
0!
1%
0,
#2635000
1!
0%
1,
#2640000
0!
1%
0,
#2641111
1-
#2645000
1!
0%
1,
#2650000
0!
1%
0,
#2655000
1!
0%
1,
#2660000
0!
1%
0,
#2661111
0-
#2665000
1!
0%
1,
#2670000
0!
1%
0,
#2675000
1!
0%
1,
#2680000
0!
1%
0,
#2681111
1-
#2685000
1!
0%
1,
#2690000
0!
1%
0,
#2695000
1!
0%
1,
#2700000
0!
1%
0,
#2701111
0-
#2705000
1!
0%
1,
#2710000
0!
1%
0,
#2715000
1!
0%
1,
#2720000
0!
1%
0,
#2721111
1-
#2725000
1!
0%
1,
#2730000
0!
1%
0,
#2735000
1!
0%
1,
#2740000
0!
1%
0,
#2741111
0-
#2745000
1!
0%
1,
#2750000
0!
1%
0,
#2755000
1!
0%
1,
#2760000
0!
1%
0,
#2761111
1-
#2765000
1!
0%
1,
#2770000
0!
1%
0,
#2775000
1!
0%
1,
#2780000
0!
1%
0,
#2781111
0-
#2785000
1!
0%
1,
#2790000
0!
1%
0,
#2795000
1!
0%
1,
#2800000
0!
1%
0,
#2801111
1-
#2805000
1!
0%
1,
#2810000
0!
1%
0,
#2815000
1!
0%
1,
#2820000
0!
1%
0,
#2821111
0-
#2825000
1!
0%
1,
#2830000
0!
1%
0,
#2835000
1!
0%
1,
#2840000
0!
1%
0,
#2841111
1-
#2845000
1!
0%
1,
#2850000
0!
1%
0,
#2855000
1!
0%
1,
#2860000
0!
1%
0,
#2861111
0-
#2865000
1!
0%
1,
#2870000
0!
1%
0,
#2875000
1!
0%
1,
#2880000
0!
1%
0,
#2881111
1-
#2885000
1!
0%
1,
#2890000
0!
1%
0,
#2895000
1!
0%
1,
#2900000
0!
1%
0,
#2901111
0-
#2905000
1!
0%
1,
#2910000
0!
1%
0,
#2915000
1!
0%
1,
#2920000
0!
1%
0,
#2921111
1-
#2925000
1!
0%
1,
#2930000
0!
1%
0,
#2935000
1!
0%
1,
#2940000
0!
1%
0,
#2941111
0-
#2945000
1!
0%
1,
#2950000
0!
1%
0,
#2955000
1!
0%
1,
#2960000
0!
1%
0,
#2961111
1-
#2965000
1!
0%
1,
#2970000
0!
1%
0,
#2975000
1!
0%
1,
#2980000
0!
1%
0,
#2981111
0-
#2985000
1!
0%
1,
#2990000
0!
1%
0,
#2995000
1!
0%
1,
#3000000
0!
1%
0,
#3001111
1-
#3005000
1!
0%
1,
#3010000
0!
1%
0,
#3015000
1!
0%
1,
#3020000
0!
1%
0,
#3021111
0-
#3025000
1!
0%
1,
#3030000
0!
1%
0,
#3035000
1!
0%
1,
#3040000
0!
1%
0,
#3041111
1-
#3045000
1!
0%
1,
#3050000
0!
1%
0,
#3055000
1!
0%
1,
#3060000
0!
1%
0,
#3061111
0-
#3065000
1!
0%
1,
#3070000
0!
1%
0,
#3075000
1!
0%
1,
#3080000
0!
1%
0,
#3081111
1-
#3085000
1!
0%
1,
#3090000
0!
1%
0,
#3095000
1!
0%
1,
#3100000
0!
1%
0,
#3101111
0-
#3105000
1!
0%
1,
#3110000
0!
1%
0,
#3115000
1!
0%
1,
#3120000
0!
1%
0,
#3121111
1-
#3125000
1!
0%
1,
#3130000
0!
1%
0,
#3135000
1!
0%
1,
#3140000
0!
1%
0,
#3141111
0-
#3145000
1!
0%
1,
#3150000
0!
1%
0,
#3155000
1!
0%
1,
#3160000
0!
1%
0,
#3161111
1-
#3165000
1!
0%
1,
#3170000
0!
1%
0,
#3175000
1!
0%
1,
#3180000
0!
1%
0,
#3181111
0-
#3185000
1!
0%
1,
#3190000
0!
1%
0,
#3195000
1!
0%
1,
#3200000
0!
1%
0,
#3201111
1-
#3205000
1!
0%
1,
#3210000
0!
1%
0,
#3215000
1!
0%
1,
#3220000
0!
1%
0,
#3221111
0-
#3225000
1!
0%
1,
#3230000
0!
1%
0,
#3235000
1!
0%
1,
#3240000
0!
1%
0,
#3241111
1-
#3245000
1!
0%
1,
#3250000
0!
1%
0,
#3255000
1!
0%
1,
#3260000
0!
1%
0,
#3261111
0-
#3265000
1!
0%
1,
#3270000
0!
1%
0,
#3275000
1!
0%
1,
#3280000
0!
1%
0,
#3281111
1-
#3285000
1!
0%
1,
#3290000
0!
1%
0,
#3295000
1!
0%
1,
#3300000
0!
1%
0,
#3301111
0-
#3305000
1!
0%
1,
#3310000
0!
1%
0,
#3315000
1!
0%
1,
#3320000
0!
1%
0,
#3321111
1-
#3325000
1!
0%
1,
#3330000
0!
1%
0,
#3335000
1!
0%
1,
#3340000
0!
1%
0,
#3341111
0-
#3345000
1!
0%
1,
#3350000
0!
1%
0,
#3355000
1!
0%
1,
#3360000
0!
1%
0,
#3361111
1-
#3365000
1!
0%
1,
#3370000
0!
1%
0,
#3375000
1!
0%
1,
#3380000
0!
1%
0,
#3381111
0-
#3385000
1!
0%
1,
#3390000
0!
1%
0,
#3395000
1!
0%
1,
#3400000
0!
1%
0,
#3401111
1-
#3405000
1!
0%
1,
#3410000
0!
1%
0,
#3415000
1!
0%
1,
#3420000
0!
1%
0,
#3421111
0-
#3425000
1!
0%
1,
#3430000
0!
1%
0,
#3435000
1!
0%
1,
#3440000
0!
1%
0,
#3441111
1-
#3445000
1!
0%
1,
#3450000
0!
1%
0,
#3455000
1!
0%
1,
#3460000
0!
1%
0,
#3461111
0-
#3465000
1!
0%
1,
#3470000
0!
1%
0,
#3475000
1!
0%
1,
#3480000
0!
1%
0,
#3481111
1-
#3485000
1!
0%
1,
#3490000
0!
1%
0,
#3495000
1!
0%
1,
#3500000
0!
1%
0,
#3501111
0-
#3505000
1!
0%
1,
#3510000
0!
1%
0,
#3515000
1!
0%
1,
#3520000
0!
1%
0,
#3521111
1-
#3525000
1!
0%
1,
#3530000
0!
1%
0,
#3535000
1!
0%
1,
#3540000
0!
1%
0,
#3541111
0-
#3545000
1!
0%
1,
#3550000
0!
1%
0,
#3555000
1!
0%
1,
#3560000
0!
1%
0,
#3561111
1-
#3565000
1!
0%
1,
#3570000
0!
1%
0,
#3575000
1!
0%
1,
#3580000
0!
1%
0,
#3581111
0-
#3585000
1!
0%
1,
#3590000
0!
1%
0,
#3595000
1!
0%
1,
#3600000
0!
1%
0,
#3601111
1-
#3605000
1!
0%
1,
#3610000
0!
1%
0,
#3615000
1!
0%
1,
#3620000
0!
1%
0,
#3621111
0-
#3625000
1!
0%
1,
#3630000
0!
1%
0,
#3635000
1!
0%
1,
#3640000
0!
1%
0,
#3641111
1-
#3645000
1!
0%
1,
#3650000
0!
1%
0,
#3655000
1!
0%
1,
#3660000
0!
1%
0,
#3661111
0-
#3665000
1!
0%
1,
#3670000
0!
1%
0,
#3675000
1!
0%
1,
#3680000
0!
1%
0,
#3681111
1-
#3685000
1!
0%
1,
#3690000
0!
1%
0,
#3695000
1!
0%
1,
#3700000
0!
1%
0,
#3701111
0-
#3705000
1!
0%
1,
#3710000
0!
1%
0,
#3715000
1!
0%
1,
#3720000
0!
1%
0,
#3721111
1-
#3725000
1!
0%
1,
#3730000
0!
1%
0,
#3735000
1!
0%
1,
#3740000
0!
1%
0,
#3741111
0-
#3745000
1!
0%
1,
#3750000
0!
1%
0,
#3755000
1!
0%
1,
#3760000
0!
1%
0,
#3761111
1-
#3765000
1!
0%
1,
#3770000
0!
1%
0,
#3775000
1!
0%
1,
#3780000
0!
1%
0,
#3781111
0-
#3785000
1!
0%
1,
#3790000
0!
1%
0,
#3795000
1!
0%
1,
#3800000
0!
1%
0,
#3801111
1-
#3805000
1!
0%
1,
#3810000
0!
1%
0,
#3815000
1!
0%
1,
#3820000
0!
1%
0,
#3821111
0-
#3825000
1!
0%
1,
#3830000
0!
1%
0,
#3835000
1!
0%
1,
#3840000
0!
1%
0,
#3841111
1-
#3845000
1!
0%
1,
#3850000
0!
1%
0,
#3855000
1!
0%
1,
#3860000
0!
1%
0,
#3861111
0-
#3865000
1!
0%
1,
#3870000
0!
1%
0,
#3875000
1!
0%
1,
#3880000
0!
1%
0,
#3881111
1-
#3885000
1!
0%
1,
#3890000
0!
1%
0,
#3895000
1!
0%
1,
#3900000
0!
1%
0,
#3901111
0-
#3905000
1!
0%
1,
#3910000
0!
1%
0,
#3915000
1!
0%
1,
#3920000
0!
1%
0,
#3921111
1-
#3925000
1!
0%
1,
#3930000
0!
1%
0,
#3935000
1!
0%
1,
#3940000
0!
1%
0,
#3941111
0-
#3945000
1!
0%
1,
#3950000
0!
1%
0,
#3955000
1!
0%
1,
#3960000
0!
1%
0,
#3961111
1-
#3965000
1!
0%
1,
#3970000
0!
1%
0,
#3975000
1!
0%
1,
#3980000
0!
1%
0,
#3981111
0-
#3985000
1!
0%
1,
#3990000
0!
1%
0,
#3995000
1!
0%
1,
#4000000
0!
1%
0,
#4001111
1-
#4005000
1!
0%
1,
#4010000
0!
1%
0,
#4015000
1!
0%
1,
#4020000
0!
1%
0,
#4021111
0-
#4025000
1!
0%
1,
#4030000
0!
1%
0,
#4035000
1!
0%
1,
#4040000
0!
1%
0,
#4041111
1-
#4045000
1!
0%
1,
#4050000
0!
1%
0,
#4055000
1!
0%
1,
#4060000
0!
1%
0,
#4061111
0-
#4065000
1!
0%
1,
#4070000
0!
1%
0,
#4075000
1!
0%
1,
#4080000
0!
1%
0,
#4081111
1-
#4085000
1!
0%
1,
#4090000
0!
1%
0,
#4095000
1!
0%
1,
#4100000
0!
1%
0,
#4101111
0-
#4105000
1!
0%
1,
#4110000
0!
1%
0,
#4115000
1!
0%
1,
#4120000
0!
1%
0,
#4121111
1-
#4125000
1!
0%
1,
#4130000
0!
1%
0,
#4135000
1!
0%
1,
#4140000
0!
1%
0,
#4141111
0-
#4145000
1!
0%
1,
#4150000
0!
1%
0,
#4155000
1!
0%
1,
#4160000
0!
1%
0,
#4161111
1-
#4165000
1!
0%
1,
#4170000
0!
1%
0,
#4175000
1!
0%
1,
#4180000
0!
1%
0,
#4181111
0-
#4185000
1!
0%
1,
#4190000
0!
1%
0,
#4195000
1!
0%
1,
#4200000
0!
1%
0,
#4201111
1-
#4205000
1!
0%
1,
#4210000
0!
1%
0,
#4215000
1!
0%
1,
#4220000
0!
1%
0,
#4221111
0-
#4225000
1!
0%
1,
